%YAML 1.1
%TAG !u! tag:unity3d.com,2011:
--- !u!114 &11400000
MonoBehaviour:
  m_ObjectHideFlags: 0
  m_CorrespondingSourceObject: {fileID: 0}
  m_PrefabInstance: {fileID: 0}
  m_PrefabAsset: {fileID: 0}
  m_GameObject: {fileID: 0}
  m_Enabled: 1
  m_EditorHideFlags: 0
  m_Script: {fileID: 11500000, guid: d2a138ac8e080a944accf112504ae787, type: 3}
  m_Name: ThemeRaja
  m_EditorClassIdentifier: 
  materials:
  - {fileID: 2100000, guid: fb102b8a15998594a9d71be509756901, type: 2}
  - {fileID: 2100000, guid: b60e4f991bce57b449871f9ca6ff43b0, type: 2}
  - {fileID: 2100000, guid: 5d4eeb41887007241981805c7cc34556, type: 2}
  - {fileID: 2100000, guid: 6b50d38b53290dc408b7e3431388d9ff, type: 2}
  - {fileID: 2100000, guid: 219cc7305c5273248865f23c00feea09, type: 2}
  - {fileID: 2100000, guid: 8798c16a33fb64345923a9e71529a9d1, type: 2}
  - {fileID: 2100000, guid: 775de8d1d78d0b84296f170258640578, type: 2}
  - {fileID: 2100000, guid: 0b9c976a2939dbd48a05cee3b91cbbfa, type: 2}
  - {fileID: 2100000, guid: 0acf135b2c7e23d48974a697e5c48726, type: 2}
  - {fileID: 2100000, guid: 5d20c390b4fc9bc4b92ca7a395465022, type: 2}
  - {fileID: 2100000, guid: a9bd160c2ed0d204f968619a8241e7ac, type: 2}
  - {fileID: 2100000, guid: 359c193263754c44986a6a4152d9b4af, type: 2}
  - {fileID: 2100000, guid: 8b0793c7e3c03b74c87e66b21a76f489, type: 2}
  - {fileID: 2100000, guid: 9e5310b10a4312047b49baf574c1bc7a, type: 2}
