<?xml version="1.0" encoding="utf-8"?>
<!-- Generator: Adobe Illustrator 24.3.0, SVG Export Plug-In . SVG Version: 6.00 Build 0)  -->
<svg version="1.1" id="Calque_1" xmlns="http://www.w3.org/2000/svg" xmlns:xlink="http://www.w3.org/1999/xlink" x="0px" y="0px"
	 viewBox="0 0 677.3 267.9" style="enable-background:new 0 0 677.3 267.9;" xml:space="preserve">
<style type="text/css">
	.st0{clip-path:url(#SVGID_2_);}
	.st1{clip-path:url(#SVGID_4_);}
	.st2{clip-path:url(#SVGID_8_);fill:#FFFFFF;}
	.st3{clip-path:url(#SVGID_10_);fill:none;stroke:#E29E48;stroke-width:8;stroke-linecap:round;stroke-linejoin:round;}
	.st4{clip-path:url(#SVGID_12_);}
	.st5{fill:#E29E48;}
	.st6{clip-path:url(#SVGID_14_);fill:none;stroke:#E29E48;stroke-width:4;stroke-linecap:round;stroke-linejoin:round;}
</style>
<g>
	<g>
		<defs>
			<rect id="SVGID_1_" x="19.5" y="60.6" width="638.4" height="138.4"/>
		</defs>
		<clipPath id="SVGID_2_">
			<use xlink:href="#SVGID_1_"  style="overflow:visible;"/>
		</clipPath>
		<g class="st0">
			<g>
				<defs>
					<rect id="SVGID_3_" x="19.5" y="60.6" width="638.4" height="138.4"/>
				</defs>
				<clipPath id="SVGID_4_">
					<use xlink:href="#SVGID_3_"  style="overflow:visible;"/>
				</clipPath>
				<g class="st1">
					<g>
						<g>
							<defs>
								<rect id="SVGID_5_" x="31" y="70.2" width="615.4" height="125.3"/>
							</defs>
							<clipPath id="SVGID_6_">
								<use xlink:href="#SVGID_5_"  style="overflow:visible;"/>
							</clipPath>
						</g>
					</g>
				</g>
			</g>
			<g>
				<defs>
					<rect id="SVGID_7_" x="19.5" y="60.6" width="638.4" height="138.4"/>
				</defs>
				<clipPath id="SVGID_8_">
					<use xlink:href="#SVGID_7_"  style="overflow:visible;"/>
				</clipPath>
				<path class="st2" d="M70.9,85.5c-5,0-9.1,3.8-9.1,8.6V149c0,4.7,4.1,8.6,9.1,8.6h543.8c5,0,9.1-3.8,9.1-8.6v-27.4V94.1
					c0-4.7-4.1-8.6-9.1-8.6H70.9z"/>
			</g>
			<g>
				<defs>
					<rect id="SVGID_9_" x="19.5" y="60.6" width="638.4" height="138.4"/>
				</defs>
				<clipPath id="SVGID_10_">
					<use xlink:href="#SVGID_9_"  style="overflow:visible;"/>
				</clipPath>
				<path class="st3" d="M70.9,85.5c-5,0-9.1,3.8-9.1,8.6V149c0,4.7,4.1,8.6,9.1,8.6h543.8c5,0,9.1-3.8,9.1-8.6v-27.4V94.1
					c0-4.7-4.1-8.6-9.1-8.6H70.9z"/>
			</g>
		</g>
	</g>
	<g>
		<defs>
			<rect id="SVGID_11_" x="19.5" y="60.6" width="638.4" height="138.4"/>
		</defs>
		<clipPath id="SVGID_12_">
			<use xlink:href="#SVGID_11_"  style="overflow:visible;"/>
		</clipPath>
		<g class="st4">
			<path class="st5" d="M138.9,104.5l1.9,0.1c0.9,0.1,2.2,0.1,3.9,0.2c1.8,0.1,3.5,0.2,5,0.2c1.5,0.1,2.9,0.1,4,0.1h2.1
				c1.9,0,3.2-0.1,4.1-0.2c0,0.8-0.1,1.4-0.4,1.9c-0.2,0.4-0.5,0.8-0.9,1.3c-0.4,0.4-0.8,0.7-1.3,1s-1.1,0.5-1.6,0.7h-8.5
				c-1.8,1-3.1,2.5-4.1,4.5c-1,1.9-1.4,4-1.4,6.3c0,3.4,1.2,6,3.7,7.7c2.1,1.5,4.9,2.2,8.3,2.2c1.9,0,3.9-0.2,6-0.7l-3.7,6
				c-0.5,0.1-1.1,0.1-1.9,0.1H151c-4.6,0-8.2-1.2-10.9-3.6c-2.9-2.5-4.4-6-4.4-10.4c0-5.2,2.6-9.4,7.7-12.5
				c-0.7-0.1-1.8-0.2-3.2-0.2c-3.1,0-6,0.9-8.7,2.8c1-2.4,2.1-4.3,3.4-5.5c1.5-1.3,2.8-1.9,3.8-1.9v-0.1H138.9z"/>
			<path class="st5" d="M171.2,115.2c1.5-0.7,2.6-1.1,3.4-1.1c3.1,0,5.5,1.1,7.2,3.4c1.5,1.9,2.3,4.2,2.3,6.9c0,2.7-0.6,5.1-1.7,7.2
				c-0.9,1.6-2.1,3-3.6,4c-1.2,0.8-2.2,1.3-3,1.3c-1.4,0-2.7-0.5-4-1.5c0.7-1.5,1.9-3,3.6-4.3c0.7,1.3,1.4,1.9,2.4,1.9
				c0.2,0,0.4-0.7,0.7-2.1c0.3-1.2,0.4-2.3,0.4-3.2c0-2.3-0.7-4.4-2.2-6.5c-1.4-2-3-3.1-4.8-3.1c-1.5,0-2.6,0.6-3.1,1.9l-0.8,16.2
				h-5V106c1.7-1,3.7-1.6,6-1.9v13.2L171.2,115.2z"/>
			<path class="st5" d="M187.2,126.9c0-3.7,0.9-6.8,2.7-9.4c2-2.7,4.4-4,7.4-4c2.4,0,4.6,0.7,6.4,2.1c2,1.5,3,3.4,3,5.7
				c0,1.1-0.1,2.4-0.4,3.7l-13.8-0.2c0.2,4.6,3.1,6.9,8.8,6.9c1.4,0,2.9-0.5,4.7-1.5c-1.2,2.8-2.7,4.8-4.4,5.9
				c-0.6,0.1-1.1,0.1-1.6,0.2c-0.4,0-0.8,0.1-1.1,0.1c-3.1,0-5.9-0.9-8.3-2.8C188.4,131.7,187.2,129.4,187.2,126.9L187.2,126.9z
				 M188.8,103.2c1.3-1.3,3.1-2.8,5.2-4.5l10.9,12.9l-2.7,0.8c-2.2-1.3-4.4-2.7-6.5-4.1c-2.1-1.5-4.3-3-6.5-4.7L188.8,103.2z
				 M196.1,117.1L196.1,117.1c-2.4,0-3.5,1.7-3.5,5l8.5,0.2C200.7,118.9,199.1,117.1,196.1,117.1z"/>
			<path class="st5" d="M240.5,131.5l2.7,1.7l-3.6,3.4h-1.2l-2.9-1.9l-1.1-15.7c0-0.1-0.3-0.2-0.8-0.4c-0.7-0.2-1.2-0.3-1.6-0.3
				c-0.5,0-1.1,0.2-1.8,0.5c-0.6,0.2-1,0.4-1,0.5l-0.3,17.3l-5.8-0.5l-0.4-17c0-0.2-0.3-0.5-0.8-0.7c-0.6-0.2-1.2-0.4-1.7-0.4H220
				c-0.2,0-0.5,0.1-0.9,0.2c-0.3,0.1-0.7,0.2-1.1,0.4c-0.6,0.2-0.9,0.4-0.9,0.5l-0.4,17.6l-5.5-0.5l0.2-18.1l-1.7-0.3l0.3-1.5l3.2-3
				c1.8,1.2,3.1,2.4,3.9,3.6c3-2.1,4.9-3.1,5.9-3.1c0.5,0,2.4,1.2,5.8,3.8c2.8-2.3,4.7-3.5,5.6-3.5s3.1,1.2,6.5,3.5L240.5,131.5z"/>
			<path class="st5" d="M243.9,126.9c0-3.7,0.9-6.8,2.7-9.4c2-2.7,4.4-4,7.4-4c2.4,0,4.6,0.7,6.4,2.1c2,1.5,3,3.4,3,5.7
				c0,1.1-0.1,2.4-0.4,3.7l-13.8-0.2c0.2,4.6,3.1,6.9,8.8,6.9c1.4,0,2.9-0.5,4.7-1.5c-1.2,2.8-2.7,4.8-4.4,5.9
				c-0.6,0.1-1.1,0.1-1.6,0.2c-0.4,0-0.8,0.1-1.1,0.1c-3.1,0-5.9-0.9-8.3-2.8C245.1,131.7,243.9,129.4,243.9,126.9L243.9,126.9z
				 M252.8,117.1L252.8,117.1c-2.4,0-3.5,1.7-3.5,5l8.5,0.2C257.4,118.9,255.8,117.1,252.8,117.1z"/>
			<path class="st5" d="M291,104.8l0.8,30.2c-1.3,0.8-2.6,1.4-4.1,1.8c-1-0.4-1.9-1-2.6-1.8l-0.2-29.2l6.2-1.9L291,104.8L291,104.8z
				"/>
			<path class="st5" d="M294.8,125.8c0-3.3,1.1-6.2,3.3-8.6c2.2-2.3,4.5-3.5,7.1-3.5c3.1,0,5.8,0.9,8.1,2.6c2.5,1.9,3.8,4.5,3.8,7.8
				s-1,6.1-3,8.5c-2.1,2.4-4.7,3.6-7.8,3.6c-4,0-7-1.3-9-3.8C295.6,130.5,294.8,128.3,294.8,125.8L294.8,125.8z M302.5,129.5
				c1.7,2.1,3.8,3.2,6.3,3.2c2.2,0,3.3-1.8,3.3-5.5c0-2.7-1-4.9-3-6.7c-2-1.7-4.3-2.6-6.9-2.6c-1.5,0-2.3,1.5-2.3,4.6
				C299.9,125.2,300.8,127.5,302.5,129.5z"/>
			<path class="st5" d="M344.8,131.6l3.5-6.7c0.1-0.2,0.2-1,0.2-2.4c0-1.5-0.2-2.4-0.7-2.9s-1.8-0.8-3.8-0.8l3.3-5.1
				c3.8,0.3,5.7,2.2,5.7,5.6c0,1.5-0.3,2.8-0.9,4l-6.4,11.6c-0.4,0.9-1.4,1.4-2.8,1.4c-0.5,0-0.9-0.1-1.4-0.2
				c-1.4-1-2.5-2.4-3.2-3.9c0-0.2-0.2-0.7-0.6-1.7s-0.8-2-1.2-3l-4.3,8.8c-0.5,0.1-0.8,0.1-1.1,0.1c-0.4,0-0.7,0-1.1-0.1
				c-0.6-0.1-1.2-0.3-1.8-0.6c-1.3-0.6-2.1-1.5-2.5-2.6l-4.5-14.3l-1.2-0.5v-2l2.3-2.6c1.2,0,2.2,0.3,3,0.8s1.4,1.2,1.6,2.1
				l4.8,14.7c1.2-2.3,2-4.1,2.4-5.4c0.2-0.6,0.4-1.3,0.6-2c0.1-0.7,0.2-1.4,0.3-2.2l-1.4-2c-0.5-0.7-1.2-1.2-2.2-1.5l2.9-4.3h0.8
				c2.1,0,3.4,0.8,4.1,2.5L344.8,131.6z"/>
			<path class="st5" d="M390.1,133.5c0,0-0.1,0.1-0.2,0.2c-0.4,0.4-0.8,0.7-1.2,1.1c-1.3,0.9-3.3,1.3-6,1.3c-1.6,0-3.3-1-5.3-2.9
				c-2-2-3.1-4.2-3.1-6.4c0-3.7,1.4-7,4.3-9.7c2.7-2.6,5.5-3.9,8.4-3.9c1.1,0,2.5,0.3,4,0.8c0.6,0.2,1.2,0.5,1.7,0.7
				s1.1,0.4,1.8,0.7c0.8,0.6,1.3,1.3,1.6,2l-1.3,1.8h0.3l1.3,15.2c-0.4,2.6-1.5,4.8-3.5,6.6c-2,1.9-4.3,2.8-6.7,2.8h-0.5
				c-1.9-0.1-5.6-0.9-10.9-2.4c1.2-1.8,2.6-3.3,4.3-4.3c0.8,0.5,2.5,1.1,4.9,1.8c2.5,0.7,4.1,1.1,4.9,1.1c1.2,0,1.7-1,1.7-3
				c0,0,0-0.4-0.1-1.2C390.3,135.1,390.2,134.3,390.1,133.5z M389.1,122.7l1.5-2.7c-0.8-0.7-2.2-1.4-4.3-1.9c-1.7-0.5-3-0.7-4.1-0.7
				c-1.3,0-2,1.9-2,5.7c0,6,2,8.9,6.1,8.9c1.2,0,2.4-0.4,3.4-1.2l-0.6-7.8V122.7z"/>
			<path class="st5" d="M407.1,116.2c3-1.7,4.8-2.5,5.4-2.5c2.5,0,4.7,0.9,6.6,2.7c1.9,1.8,2.9,3.9,2.9,6.2c0,4.5-1.3,8-3.8,10.4
				c-2.3,2.2-5.3,3.3-9,3.3c-0.4,0-0.9,0-1.3,0s-0.6,0-0.7,0l-0.6,6.2c-1.6,1-3.2,1.6-4.9,1.9l-0.3-9.7c-0.5-0.3-1.2-0.4-2-0.4v-1.5
				l2.2-1.7l-0.4-12.3l-1.4-1c1-1.7,2.2-3.1,3.5-4.1h1.1l2.9,3L407.1,116.2z M407.7,132c2.1,0.8,3.8,1.2,5.2,1.2
				c2.6,0,3.9-2,3.9-5.9c0-2.7-0.6-4.9-1.7-6.7c-1.2-1.7-2.8-2.6-4.9-2.6c-0.6,0-1.4,0.3-2.5,0.9V132z"/>
			<path class="st5" d="M445.5,132.3l-3.1,3.9c-0.3,0.1-0.6,0.1-0.8,0.1c-1.1,0-2.4-1-3.9-2.9l-5.7,2.7c-1,0-2-0.2-2.7-0.5
				s-1.4-0.8-2-1.4s-1-1.2-1.3-2c-0.3-0.7-0.5-1.5-0.5-2.3l-0.3-10.9l0,0c0,0-0.3-0.2-0.9-0.4c-0.2-0.7-0.4-1.2-0.4-1.6v-0.4
				l3.7-2.9c1.1,0.2,2,0.7,2.6,1.5c0.7,0.8,1,1.6,1.1,2.4l0.6,12.8c0,0.2,0.1,0.5,0.2,0.7s0.3,0.4,0.6,0.5c0.2,0.2,0.5,0.3,0.8,0.4
				c0.2,0.1,0.4,0.1,0.6,0.1c1,0,2.1-0.4,3.3-1.3l-0.1-11.9l-1.1-0.5l4.4-4.4h3.2l0.2,17.6C444.1,132,444.6,132.1,445.5,132.3z"/>
		</g>
	</g>
	<g>
		<defs>
			<rect id="SVGID_13_" x="19.5" y="60.6" width="638.4" height="138.4"/>
		</defs>
		<clipPath id="SVGID_14_">
			<use xlink:href="#SVGID_13_"  style="overflow:visible;"/>
		</clipPath>
		<polyline class="st6" points="549.3,137.3 564.9,121.8 549.3,106.3 		"/>
	</g>
</g>
</svg>
