<?xml version="1.0" encoding="utf-8"?>
<!-- Generator: Adobe Illustrator 24.3.0, SVG Export Plug-In . SVG Version: 6.00 Build 0)  -->
<svg version="1.1" id="Calque_1" xmlns="http://www.w3.org/2000/svg" xmlns:xlink="http://www.w3.org/1999/xlink" x="0px" y="0px"
	 viewBox="0 0 1483.3 229.9" style="enable-background:new 0 0 1483.3 229.9;" xml:space="preserve">
<style type="text/css">
	.st0{clip-path:url(#SVGID_2_);fill:#FFFFFF;}
	.st1{clip-path:url(#SVGID_2_);fill:none;stroke:#E29E48;stroke-width:3;stroke-miterlimit:10;}
	.st2{fill:#FFFFFF;}
	.st3{fill:none;stroke:#E29E48;stroke-width:3;stroke-miterlimit:10;}
	.st4{clip-path:url(#SVGID_4_);fill:#FFFFFF;}
	.st5{clip-path:url(#SVGID_4_);fill:none;stroke:#E29E48;stroke-width:3;stroke-miterlimit:10;}
</style>
<g>
	<defs>
		<rect id="SVGID_1_" x="292.2" y="99.1" width="899" height="31.6"/>
	</defs>
	<clipPath id="SVGID_2_">
		<use xlink:href="#SVGID_1_"  style="overflow:visible;"/>
	</clipPath>
	<path class="st0" d="M741.7,109.7c-2.9,0-5.3,2.4-5.3,5.3c0,2.9,2.4,5.3,5.3,5.3c2.9,0,5.3-2.4,5.3-5.3
		C747,112,744.6,109.7,741.7,109.7"/>
	<ellipse class="st1" cx="741.7" cy="114.9" rx="5.3" ry="5.3"/>
	<path class="st0" d="M741.7,122.8c-4.3,0-7.9-3.5-7.9-7.8c0-4.3,3.5-7.8,7.9-7.8c4.3,0,7.9,3.5,7.9,7.8
		C749.5,119.3,746,122.8,741.7,122.8 M741.7,102.9c-6.6,0-12,5.4-12,12c0,6.6,5.4,12,12,12c6.6,0,12-5.4,12-12
		C753.7,108.3,748.3,102.9,741.7,102.9"/>
	<path class="st1" d="M741.7,122.8c-4.3,0-7.9-3.5-7.9-7.8c0-4.3,3.5-7.8,7.9-7.8c4.3,0,7.9,3.5,7.9,7.8
		C749.5,119.3,746,122.8,741.7,122.8z M741.7,102.9c-6.6,0-12,5.4-12,12c0,6.6,5.4,12,12,12c6.6,0,12-5.4,12-12
		C753.7,108.3,748.3,102.9,741.7,102.9z"/>
	<path class="st0" d="M337.9,114.4c-2.1,0-4.1-0.7-5.8-2.1c-1.2-1-2.3-2.4-2.9-4.4c-1.4,2.5-3.5,4.2-5.7,5.2
		c-3.3-1.7-7.2-4.7-8.8-10c-3.2,5.9-8.9,8.9-13.7,10.4c-4.9,1.5-8.9,1.5-8.9,1.5s4,0,8.9,1.5c4.8,1.5,10.5,4.4,13.7,10.4
		c1.6-5.4,5.5-8.4,8.8-10.1c2.1,1,4.3,2.7,5.7,5.2c0.4-1.4,1.1-2.6,1.9-3.5c1.8-2,4.2-2.9,6.7-2.9L337.9,114.4z"/>
	<path class="st1" d="M337.9,114.4c-2.1,0-4.1-0.7-5.8-2.1c-1.2-1-2.3-2.4-2.9-4.4c-1.4,2.5-3.5,4.2-5.7,5.2
		c-3.3-1.7-7.2-4.7-8.8-10c-3.2,5.9-8.9,8.9-13.7,10.4c-4.9,1.5-8.9,1.5-8.9,1.5s4,0,8.9,1.5c4.8,1.5,10.5,4.4,13.7,10.4
		c1.6-5.4,5.5-8.4,8.8-10.1c2.1,1,4.3,2.7,5.7,5.2c0.4-1.4,1.1-2.6,1.9-3.5c1.8-2,4.2-2.9,6.7-2.9L337.9,114.4z"/>
</g>
<polygon class="st2" points="327,112.3 327,114.9 327,117.6 735,117.6 735,114.9 735,112.3 "/>
<polygon class="st3" points="327,112.3 327,114.9 327,117.6 735,117.6 735,114.9 735,112.3 "/>
<g>
	<defs>
		<rect id="SVGID_3_" x="292.2" y="99.1" width="899" height="31.6"/>
	</defs>
	<clipPath id="SVGID_4_">
		<use xlink:href="#SVGID_3_"  style="overflow:visible;"/>
	</clipPath>
	<path class="st4" d="M1182.3,113.5c-4.8-1.5-10.5-4.5-13.7-10.4c-1.6,5.4-5.5,8.4-8.8,10c-2.1-1-4.3-2.6-5.7-5.2
		c-0.5,1.9-1.6,3.3-2.9,4.4c-1.6,1.4-3.7,2.1-5.8,2.1l-0.1,1.1c2.5,0,4.9,1,6.7,2.9c0.8,0.9,1.5,2.1,1.9,3.5
		c1.4-2.5,3.5-4.2,5.7-5.2c3.3,1.7,7.2,4.7,8.8,10.1c3.2-6,8.9-8.9,13.7-10.4c4.9-1.5,8.9-1.5,8.9-1.5S1187.1,114.9,1182.3,113.5"/>
	<path class="st5" d="M1182.3,113.5c-4.8-1.5-10.5-4.5-13.7-10.4c-1.6,5.4-5.5,8.4-8.8,10c-2.1-1-4.3-2.6-5.7-5.2
		c-0.5,1.9-1.6,3.3-2.9,4.4c-1.6,1.4-3.7,2.1-5.8,2.1l-0.1,1.1c2.5,0,4.9,1,6.7,2.9c0.8,0.9,1.5,2.1,1.9,3.5
		c1.4-2.5,3.5-4.2,5.7-5.2c3.3,1.7,7.2,4.7,8.8,10.1c3.2-6,8.9-8.9,13.7-10.4c4.9-1.5,8.9-1.5,8.9-1.5S1187.1,114.9,1182.3,113.5z"
		/>
</g>
<rect x="748.4" y="112.3" class="st2" width="408" height="5.3"/>
<rect x="748.4" y="112.3" class="st3" width="408" height="5.3"/>
</svg>
