%YAML 1.1
%TAG !u! tag:unity3d.com,2011:
--- !u!1001 &4375143984337670039
PrefabInstance:
  m_ObjectHideFlags: 0
  serializedVersion: 2
  m_Modification:
    m_TransformParent: {fileID: 0}
    m_Modifications:
    - target: {fileID: 1722514255420897508, guid: e8f5acce339a65d4d849a1ecc48bfff1, type: 3}
      propertyPath: m_Name
      value: TestTicketSpawner (1)
      objectReference: {fileID: 0}
    - target: {fileID: 1722514255420897509, guid: e8f5acce339a65d4d849a1ecc48bfff1, type: 3}
      propertyPath: m_RootOrder
      value: 0
      objectReference: {fileID: 0}
    - target: {fileID: 1722514255420897509, guid: e8f5acce339a65d4d849a1ecc48bfff1, type: 3}
      propertyPath: m_LocalPosition.x
      value: -6.4
      objectReference: {fileID: 0}
    - target: {fileID: 1722514255420897509, guid: e8f5acce339a65d4d849a1ecc48bfff1, type: 3}
      propertyPath: m_LocalPosition.y
      value: 3.9599998
      objectReference: {fileID: 0}
    - target: {fileID: 1722514255420897509, guid: e8f5acce339a65d4d849a1ecc48bfff1, type: 3}
      propertyPath: m_LocalPosition.z
      value: 0
      objectReference: {fileID: 0}
    - target: {fileID: 1722514255420897509, guid: e8f5acce339a65d4d849a1ecc48bfff1, type: 3}
      propertyPath: m_LocalRotation.w
      value: 1
      objectReference: {fileID: 0}
    - target: {fileID: 1722514255420897509, guid: e8f5acce339a65d4d849a1ecc48bfff1, type: 3}
      propertyPath: m_LocalRotation.x
      value: -0
      objectReference: {fileID: 0}
    - target: {fileID: 1722514255420897509, guid: e8f5acce339a65d4d849a1ecc48bfff1, type: 3}
      propertyPath: m_LocalRotation.y
      value: -0
      objectReference: {fileID: 0}
    - target: {fileID: 1722514255420897509, guid: e8f5acce339a65d4d849a1ecc48bfff1, type: 3}
      propertyPath: m_LocalRotation.z
      value: -0
      objectReference: {fileID: 0}
    - target: {fileID: 1722514255420897509, guid: e8f5acce339a65d4d849a1ecc48bfff1, type: 3}
      propertyPath: m_LocalEulerAnglesHint.x
      value: 0
      objectReference: {fileID: 0}
    - target: {fileID: 1722514255420897509, guid: e8f5acce339a65d4d849a1ecc48bfff1, type: 3}
      propertyPath: m_LocalEulerAnglesHint.y
      value: 0
      objectReference: {fileID: 0}
    - target: {fileID: 1722514255420897509, guid: e8f5acce339a65d4d849a1ecc48bfff1, type: 3}
      propertyPath: m_LocalEulerAnglesHint.z
      value: 0
      objectReference: {fileID: 0}
    - target: {fileID: 1722514255420897515, guid: e8f5acce339a65d4d849a1ecc48bfff1, type: 3}
      propertyPath: _id
      value: 8
      objectReference: {fileID: 0}
    - target: {fileID: 1722514255420897515, guid: e8f5acce339a65d4d849a1ecc48bfff1, type: 3}
      propertyPath: isUnlimited
      value: 1
      objectReference: {fileID: 0}
    - target: {fileID: 1722514255420897515, guid: e8f5acce339a65d4d849a1ecc48bfff1, type: 3}
      propertyPath: remainingCopies
      value: 1
      objectReference: {fileID: 0}
    - target: {fileID: 1722514255420897515, guid: e8f5acce339a65d4d849a1ecc48bfff1, type: 3}
      propertyPath: associatedFaketon
      value: 
      objectReference: {fileID: 3979051218770276316, guid: 4ea1b556ec1feab4b974abe60904da02, type: 3}
    - target: {fileID: 1772069037757980509, guid: e8f5acce339a65d4d849a1ecc48bfff1, type: 3}
      propertyPath: m_SortingOrder
      value: 0
      objectReference: {fileID: 0}
    - target: {fileID: 8103275769917096658, guid: e8f5acce339a65d4d849a1ecc48bfff1, type: 3}
      propertyPath: m_LocalScale.x
      value: 10
      objectReference: {fileID: 0}
    - target: {fileID: 8103275769917096658, guid: e8f5acce339a65d4d849a1ecc48bfff1, type: 3}
      propertyPath: m_LocalScale.y
      value: 10
      objectReference: {fileID: 0}
    m_RemovedComponents: []
  m_SourcePrefab: {fileID: 100100000, guid: e8f5acce339a65d4d849a1ecc48bfff1, type: 3}
