<?xml version="1.0" encoding="utf-8"?>
<!-- Generator: Adobe Illustrator 24.3.0, SVG Export Plug-In . SVG Version: 6.00 Build 0)  -->
<svg version="1.1" id="Calque_1" xmlns="http://www.w3.org/2000/svg" xmlns:xlink="http://www.w3.org/1999/xlink" x="0px" y="0px"
	 viewBox="0 0 630.3 768" style="enable-background:new 0 0 630.3 768;" xml:space="preserve">
<style type="text/css">
	.st0{fill:#F49C1C;}
	.st1{fill:#D38013;}
	.st2{fill:#6DCC93;}
	.st3{fill:#80DDAE;}
	.st4{fill:#927DEA;}
	.st5{opacity:0.25;fill:#D38013;}
	.st6{fill:#2C2C2C;}
	.st7{fill:#FFFFFF;}
	.st8{fill:#F76666;}
	.st9{stroke:#D38013;stroke-width:3;stroke-linecap:round;stroke-miterlimit:10;}
</style>
<path class="st3" d="M284.4,300.3l-62.3,26.8L243.5,446l-12.9,138.6c0,0,104.8,22.5,156.5-1.4l-4.8-263.9l-54.5-16.6L284.4,300.3z"
	/>
<g>
	<g>
		<path class="st3" d="M235.4,520.9c-7.9-12.8-25.7-49.9-27.2-69.8c0,0,5.4-19,35.4-62.6c0,0-1-44.8-21.8-59.9c0,0-38.9,53-49,117
			c-4.4,28.2,43.4,92.1,62.6,112.6V520.9z"/>
	</g>
	<g>
		<path class="st0" d="M235.2,522.1c0,0-3.2-7.6-2.1-12.2c0.9-3.7,4.3-2.3,4.3-2.3l1.1,10.7c0,0,19.1,3.1,24.9,9.1
			c5.9,5.9-14.1,5.3-14.1,5.3s15.6,1.7,19.4,3.3c3.8,1.6-5.5,6.6-21.5,6.6c0,0,17.9,2.2,18.5,5.4c0.7,3.2-22.7,4.5-22.7,4.5
			s14.8,2.2,16,4.9c1.2,2.7-20.4,5.2-20.4,5.2s-10.3-1.7-6.4-7.4c0,0-7.9-8.5-1.1-11.2c0,0-3.8-9.1,3.1-10.9
			C234.3,533.1,226.9,525.2,235.2,522.1z"/>
	</g>
</g>
<g>
	<path class="st0" d="M487.8,300.1c0,0-2.1-8.8-2.2-16.8c-0.1-7.9,0.1-17.6,0.1-22.5c0-5.9,6.3-3.7,6.7,4.4c0.4,8.2,0.5,10,0.5,10
		s6.4-31,11.2-38c4.4-6.4,1.7,10.9,0.3,25.2c0,0,11.4-28.8,16.5-29.8c6.8-1.3-7.1,33.6-7.1,33.6s14-24.2,16.7-22.1
		c3,2.3-8.4,28.9-8.4,28.9s11.1-15.8,12.4-13.8c2.5,4-13.9,41.6-30.4,50.5C504.1,309.8,489.7,304.3,487.8,300.1z"/>
	<path class="st1" d="M499.6,267.4c0,0,14.6,2.5,22.3,14C521.9,281.4,520.1,267.5,499.6,267.4z"/>
	<path class="st1" d="M506.1,280.9c0,0,0.9,17.3-14.4,17.7C491.8,298.7,509.1,303.8,506.1,280.9z"/>
</g>
<g>
	<g>
		<path class="st4" d="M332.5,233.8c18.7-9.3,20.7,9.3,25.3,7.8c8.6-2.9,17.7-24.9,17.4-36.5c-0.2-7-2.8-11.3-4.9-13.6
			c3.5-2.8,8.4-5.8,9.2-13.4c1.7-16.9-24.4-26.3-24.4-26.3s2.9-8.6-2.7-16.3c-7-9.6-32.4-15.8-49-10.9c-13.3,4-19,16.3-19,16.3
			s-17.4-11.2-32.4-2.2c-12.3,7.4-8.6,23.9-8.6,23.9s-14.8-4.6-20.3,9.1c-5.5,13.6-6,26.9-4,39.9c2,13,11.6,17.2,11.6,17.2
			s-7.2,29.9,14.6,32.6c0,0,17.7,32.4,44.9,16.1L332.5,233.8z"/>
	</g>
</g>
<g>
	<g>
		<path class="st0" d="M327.8,310.3c-0.9,11.7-6.2,50.4-42-1.9l-1.9-25.8l-1.4-18.9l47.8,9.3l-1.9,29.8L327.8,310.3z"/>
	</g>
	<g>
		<path class="st1" d="M328.1,306.3c-16.3,0-34.6-10.7-43.8-18l-1.9-24.6l47.8,9.3L328.1,306.3z"/>
	</g>
</g>
<g>
	<path class="st0" d="M317,292.4c-43.9,0-65.1-72.8-65.1-72.8s-0.1-4.1,0.6-10.1c0.4-3.3,1.1-7.1,2.3-11.2
		c3.3-11.8,10.5-25.2,25.9-31c0.5-0.2,1-0.4,1.5-0.5c25.4-9,62.7-4.8,74,28.9c0.7,2,1.2,4.2,1.7,6.5c0.3,1.3,0.7,2.7,0.7,4.1
		C359.7,241.3,342.6,292.4,317,292.4z"/>
</g>
<g>
	<path class="st0" d="M260,220.9c0,0-19.4-9.1-19.2,7.1c0.2,14.6,10.9,32.7,28,29.4L260,220.9z"/>
</g>
<g>
	<path class="st1" d="M261,246.3c-1.5-4.4-5.6-13.5-15.8-17.5c0,0,10.9,10.3,11.8,18.3c0.1,1,1,1.9,2,1.8l0.2,0
		C260.5,248.9,261.4,247.6,261,246.3z"/>
</g>
<g>
	<path class="st1" d="M323.1,243.7l-7.1,1.3c-0.8,0-1.5-0.7-1.5-1.5c0-0.8,0.7-1.5,1.5-1.5l7.1-1.3c0.1,0,0.2-0.1,0.3-0.1
		c0-0.1,0.1-0.2,0.1-0.3l-3.2-12c-0.2-0.8,0.2-1.6,1-1.8c0.8-0.2,1.6,0.2,1.8,1l3.2,12c0.3,1,0.1,2-0.5,2.9
		C325.1,243.2,324.2,243.7,323.1,243.7z"/>
</g>
<path class="st4" d="M284.8,170.2c0,0-2.3,41-21.4,57.5c0,0-1.6-10.9-16.5-9.2c0,0-1.4-2.5-3.6-14.9c-2.2-12.3,5.7-63.2,62.1-59.9
	c0,0,17.9-3.6,43,17.8c25.1,21.5,10.2,44.9,10.2,44.9S316.7,200.6,284.8,170.2z"/>
<path class="st5" d="M269.5,240c0,0,12.2,0,21.9,10.8c6.1,6.8,4.6,33,4.6,33S270.7,267.1,269.5,240z"/>
<path class="st5" d="M354.8,240c0,0,0-1.2-7.4,4.9c-6.7,5.5-4.8,28-4.8,28S349.9,263.2,354.8,240z"/>
<g>
	<g>
		<path class="st6" d="M334.3,264.1c-0.7,1.6-1.7,3.1-3,4.5c-2.6,2.8-6.6,4.8-12.6,4.8c-5.1,0-9.1-2.8-12-6.2c-2-2.3-3.5-4.8-4.6-7
			c-1.3-2.5-1.9-4.4-1.9-4.4s24.4-0.8,36.1-2.5c0,0,0,0,0,0c0,0.1,0.1,2.1-0.2,4.8C335.7,259.8,335.2,262,334.3,264.1z"/>
	</g>
	<g>
		<path class="st7" d="M335.9,258c-11.1,2.2-29.2,2-34,2.1c-1.3-2.5-1.9-4.4-1.9-4.4s24.4-0.8,36.1-2.5c0,0,0,0,0,0
			C336.2,253.3,336.3,255.3,335.9,258z"/>
	</g>
</g>
<g>
	<path class="st8" d="M331.3,268.5c-2.6,2.8-6.6,4.8-12.6,4.8c-5.1,0-9.1-2.8-12-6.2c1.6-0.9,6.1-2.9,12.5-0.7c0,0,2.3-1.4,6.3-0.9
		C327.7,265.7,329.8,266.5,331.3,268.5z"/>
</g>
<path class="st6" d="M309,207L309,207c0,1.4-1.3,2.5-2.8,2.4c-5.1-0.4-15.9-0.5-21.6,3.9c0,0,2.7-8.3,21.8-8.6
	C307.8,204.6,309,205.7,309,207z"/>
<path class="st6" d="M328.8,207.2L328.8,207.2c0.1,1.4,1.3,2.4,2.7,2.3c4.6-0.6,14.3-1.3,19.8,2.9c0,0-2.9-8.2-20.1-7.6
	C329.8,204.8,328.8,205.9,328.8,207.2z"/>
<g>
	<g>
		<path class="st6" d="M342,219.3c0,3.5-2.1,6.3-4.7,6.3c-2.7,0-4.9-2.7-4.9-6.2c0-3.5,2.1-6.3,4.7-6.3
			C339.7,213.1,341.9,215.8,342,219.3z"/>
	</g>
</g>
<g>
	<g>
		<path class="st6" d="M303.9,219.3c0,3.5-2.1,6.3-4.7,6.3c-2.7,0-4.9-2.7-4.9-6.2c0-3.5,2.1-6.3,4.7-6.3
			C301.7,213.1,303.8,215.8,303.9,219.3z"/>
	</g>
</g>
<g>
	<path class="st3" d="M382.1,319.5l69.3,48.3c0,0,20.2-49.3,36.5-68.2c7,3.8,13.8,6.9,20,7.2c0,0-24.2,85.4-40.7,97.2
		C450.6,415.9,346.5,358,346.5,358S371.1,321,382.1,319.5z"/>
</g>
</svg>
